MLR
…
df2 <- df |> 
  group_by(W) |> 
  mutate(
    mean_X = mean(X), 
    mean_Y = mean(Y)
    )  |> 
  ungroup()

df2

# A tibble: 200 × 5
   W           X      Y mean_X mean_Y
   <lgl>   <dbl>  <dbl>  <dbl>  <dbl>
 1 FALSE -0.707  1.84    0.343  0.983
 2 FALSE  0.777  1.31    0.343  0.983
 3 FALSE  1.58   0.393   0.343  0.983
 4 FALSE -1.85   2.62    0.343  0.983
 5 FALSE  0.929  0.847   0.343  0.983
 6 FALSE  1.01   1.26    0.343  0.983
 7 FALSE -0.0747 2.88    0.343  0.983
 8 FALSE -0.0466 2.14    0.343  0.983
 9 FALSE -0.0645 1.06    0.343  0.983
10 FALSE -0.390  0.0806  0.343  0.983
# ℹ 190 more rows
…
